Time : 04:23:43
SQLSTATE[23000]: Integrity constraint violation: 1062 Duplicate entry 'gbernal096@hotmail.com' for key 'email'
Raw SQL : INSERT INTO preview_users(email,password) VALUES(:f,:age)

Time : 04:23:30
SQLSTATE[HY000] [2002] A connection attempt failed because the connected party did not properly respond after a period of time, or established connection failed because connected host has failed to respond.


Time : 04:23:04
SQLSTATE[HY000] [2002] A connection attempt failed because the connected party did not properly respond after a period of time, or established connection failed because connected host has failed to respond.

